<svg width="20" height="31" viewBox="0 0 20 31" fill="none" xmlns="http://www.w3.org/2000/svg">
<path d="M19.2838 12.6965L13.333 11.8316L10.6728 6.43868C10.6002 6.29102 10.4806 6.17149 10.333 6.09884C9.96267 5.91602 9.51267 6.06837 9.32751 6.43868L6.66735 11.8316L0.716572 12.6965C0.55251 12.7199 0.40251 12.7973 0.287666 12.9145C0.148826 13.0572 0.0723193 13.2492 0.0749561 13.4482C0.0775929 13.6473 0.159158 13.8372 0.301728 13.9762L4.6072 18.1738L3.59001 24.1012C3.56616 24.2391 3.58141 24.3809 3.63405 24.5105C3.68669 24.6402 3.77461 24.7525 3.88783 24.8347C4.00105 24.9169 4.13504 24.9658 4.27462 24.9758C4.41419 24.9857 4.55377 24.9564 4.67751 24.891L10.0002 22.0926L15.3228 24.891C15.4681 24.9684 15.6369 24.9941 15.7986 24.966C16.2064 24.8957 16.4806 24.509 16.4103 24.1012L15.3931 18.1738L19.6986 13.9762C19.8158 13.8613 19.8931 13.7113 19.9166 13.5473C19.9799 13.1371 19.6939 12.7574 19.2838 12.6965Z" fill="#FADB14"/>
</svg>
